Terminal ID: 12; Elapsed time: 421 ms ;Q1: http://0.0.0.0:3000/
Terminal ID: 15; Elapsed time: 612 ms ;Q3: http://0.0.0.0:3000/wkuebersicht
Terminal ID: 16; Elapsed time: 756 ms ;Q6: http://0.0.0.0:3000/knapp
Terminal ID: 13; Elapsed time: 1222 ms ;Q5: http://0.0.0.0:3000/ueberhang
Terminal ID: 14; Elapsed time: 1281 ms ;Q1: http://0.0.0.0:3000/
Terminal ID: 10; Elapsed time: 1836 ms ;Q2: http://0.0.0.0:3000/mdb
Terminal ID: 9; Elapsed time: 1970 ms ;Q6: http://0.0.0.0:3000/knapp
Terminal ID: 18; Elapsed time: 2029 ms ;Q1: http://0.0.0.0:3000/
Terminal ID: 11; Elapsed time: 2283 ms ;Q3: http://0.0.0.0:3000/wkuebersicht
Terminal ID: 17; Elapsed time: 2486 ms ;Q3: http://0.0.0.0:3000/wkuebersicht
Terminal ID: 15; Elapsed time: 138 ms ;Q6: http://0.0.0.0:3000/knapp
Terminal ID: 14; Elapsed time: 145 ms ;Q6: http://0.0.0.0:3000/knapp
Terminal ID: 12; Elapsed time: 162 ms ;Q6: http://0.0.0.0:3000/knapp
Terminal ID: 16; Elapsed time: 73 ms ;Q1: http://0.0.0.0:3000/
Terminal ID: 13; Elapsed time: 212 ms ;Q3: http://0.0.0.0:3000/wkuebersicht
Terminal ID: 18; Elapsed time: 222 ms ;Q4: http://0.0.0.0:3000/wahlkreissieger
Terminal ID: 9; Elapsed time: 277 ms ;Q6: http://0.0.0.0:3000/knapp
Terminal ID: 17; Elapsed time: 75 ms ;Q1: http://0.0.0.0:3000/
Terminal ID: 10; Elapsed time: 143 ms ;Q6: http://0.0.0.0:3000/knapp
Terminal ID: 11; Elapsed time: 560 ms ;Q2: http://0.0.0.0:3000/mdb
Terminal ID: 16; Elapsed time: 67 ms ;Q1: http://0.0.0.0:3000/
Terminal ID: 14; Elapsed time: 247 ms ;Q3: http://0.0.0.0:3000/wkuebersicht
Terminal ID: 15; Elapsed time: 208 ms ;Q3: http://0.0.0.0:3000/wkuebersicht
Terminal ID: 12; Elapsed time: 378 ms ;Q3: http://0.0.0.0:3000/wkuebersicht
Terminal ID: 13; Elapsed time: 667 ms ;Q5: http://0.0.0.0:3000/ueberhang
Terminal ID: 9; Elapsed time: 556 ms ;Q1: http://0.0.0.0:3000/
Terminal ID: 17; Elapsed time: 974 ms ;Q2: http://0.0.0.0:3000/mdb
Terminal ID: 18; Elapsed time: 1018 ms ;Q5: http://0.0.0.0:3000/ueberhang
Terminal ID: 10; Elapsed time: 1060 ms ;Q3: http://0.0.0.0:3000/wkuebersicht
Terminal ID: 16; Elapsed time: 64 ms ;Q1: http://0.0.0.0:3000/
Terminal ID: 14; Elapsed time: 69 ms ;Q1: http://0.0.0.0:3000/
Terminal ID: 11; Elapsed time: 170 ms ;Q6: http://0.0.0.0:3000/knapp
Terminal ID: 15; Elapsed time: 191 ms ;Q4: http://0.0.0.0:3000/wahlkreissieger
Terminal ID: 13; Elapsed time: 212 ms ;Q3: http://0.0.0.0:3000/wkuebersicht
Terminal ID: 12; Elapsed time: 628 ms ;Q2: http://0.0.0.0:3000/mdb
Terminal ID: 9; Elapsed time: 1069 ms ;Q2: http://0.0.0.0:3000/mdb
Terminal ID: 17; Elapsed time: 760 ms ;Q1: http://0.0.0.0:3000/
Terminal ID: 11; Elapsed time: 67 ms ;Q1: http://0.0.0.0:3000/
Terminal ID: 16; Elapsed time: 228 ms ;Q4: http://0.0.0.0:3000/wahlkreissieger
Terminal ID: 18; Elapsed time: 402 ms ;Q3: http://0.0.0.0:3000/wkuebersicht
Terminal ID: 14; Elapsed time: 629 ms ;Q5: http://0.0.0.0:3000/ueberhang
Terminal ID: 10; Elapsed time: 528 ms ;Q1: http://0.0.0.0:3000/
Terminal ID: 15; Elapsed time: 813 ms ;Q5: http://0.0.0.0:3000/ueberhang
Terminal ID: 13; Elapsed time: 286 ms ;Q3: http://0.0.0.0:3000/wkuebersicht
Terminal ID: 12; Elapsed time: 139 ms ;Q6: http://0.0.0.0:3000/knapp
Terminal ID: 9; Elapsed time: 492 ms ;Q5: http://0.0.0.0:3000/ueberhang
Terminal ID: 11; Elapsed time: 139 ms ;Q6: http://0.0.0.0:3000/knapp
Terminal ID: 18; Elapsed time: 651 ms ;Q2: http://0.0.0.0:3000/mdb
Terminal ID: 17; Elapsed time: 803 ms ;Q2: http://0.0.0.0:3000/mdb
Terminal ID: 10; Elapsed time: 448 ms ;Q6: http://0.0.0.0:3000/knapp
 Average request time 
Q4: 213 ms; Q2: 931 ms; Q5: 806 ms; Q6: 407 ms; Q3: 762 ms; Q1: 499 ms; 
