Wahlberechtigte;235.610;-;-;235.610;-;-
Wähler;179.055;76,0;0,3;179.055;76,0;0,3
Ungültige;1.703;1,0;-1,0;1.682;0,9;-0,9
Gültige;177.352;99,0;1,0;177.373;99,1;0,9
CDU;80.483;45,4;4,6;72.006;40,6;7,5
SPD;64.006;36,1;4,3;55.371;31,2;4,9
FDP;3.303;1,9;-8,0;9.863;5,6;-11,0
GRÜNE;11.324;6,4;-3,0;15.291;8,6;-3,5
DIE LINKE;6.985;3,9;-2,9;8.910;5,0;-2,7
PIRATEN;3.225;1,8;1,8;3.370;1,9;-0,2
RENTNER;-;-;-;665;0,4;-0,5
NPD;1.260;0,7;-0,4;1.319;0,7;-0,3
MLPD;-;-;-;42;0,0;-0,0
AfD;6.766;3,8;3,8;8.479;4,8;4,8
FREIE WÄHLER;-;-;-;786;0,4;0,4
Tierschutzpartei;-;-;-;1.271;0,7;0,7
