Wahlberechtigte;195.948;-;-;195.948;-;-
Wähler;141.773;72,4;0,1;141.773;72,4;0,1
Ungültige;1.464;1,0;-0,2;1.156;0,8;-0,1
Gültige;140.309;99,0;0,2;140.617;99,2;0,1
CDU;58.349;41,6;4,4;56.279;40,0;7,8
SPD;62.641;44,6;3,3;51.043;36,3;3,3
FDP;1.950;1,4;-4,8;4.993;3,6;-8,9
GRÜNE;8.173;5,8;-1,4;11.370;8,1;-1,6
DIE LINKE;4.649;3,3;-2,9;6.006;4,3;-3,4
PIRATEN;2.693;1,9;1,9;2.108;1,5;-0,2
NPD;1.854;1,3;-0,1;1.216;0,9;-0,4
Tierschutzpartei;-;-;-;1.129;0,8;0,0
MLPD;-;-;-;41;0,0;-0,0
AfD;-;-;-;5.514;3,9;3,9
pro Deutschland;-;-;-;159;0,1;0,1
REP;-;-;-;112;0,1;0,1
FREIE WÄHLER;-;-;-;436;0,3;0,3
PBC;-;-;-;211;0,2;0,2
