Wahlberechtigte;219.571;-;-;219.571;-;-
Wähler;164.796;75,1;-0,1;164.796;75,1;-0,1
Ungültige;2.451;1,5;0,2;1.799;1,1;0,0
Gültige;162.345;98,5;-0,2;162.997;98,9;-0,0
CDU;68.653;42,3;5,8;63.041;38,7;6,8
SPD;66.986;41,3;2,2;59.319;36,4;3,5
FDP;2.489;1,5;-4,7;5.589;3,4;-7,9
GRÜNE;13.771;8,5;-0,5;14.587;8,9;-1,5
DIE LINKE;7.909;4,9;-2,0;8.120;4,98;-3,1
PIRATEN;-;-;-;2.937;1,8;-0,1
NPD;2.537;1,6;-0,0;1.482;0,9;-0,6
Tierschutzpartei;-;-;-;1.208;0,7;-0,1
MLPD;-;-;-;31;0,0;-0,0
AfD;-;-;-;5.601;3,4;3,4
pro Deutschland;-;-;-;384;0,2;0,2
REP;-;-;-;92;0,1;0,1
FREIE WÄHLER;-;-;-;455;0,3;0,3
PBC;-;-;-;151;0,1;0,1
