Wahlberechtigte;222.102;-;-;222.102;-;-
Wähler;165.814;74,7;0,5;165.814;74,7;0,5
Ungültige;1.974;1,2;-0,1;1.511;0,9;-0,2
Gültige;163.840;98,8;0,1;164.303;99,1;0,2
CDU;62.558;38,2;3,8;59.000;35,9;7,1
SPD;66.192;40,4;3,6;54.410;33,1;3,5
FDP;2.633;1,6;-4,9;6.667;4,1;-9,4
GRÜNE;16.740;10,2;-2,8;20.076;12,2;-2,2
DIE LINKE;8.581;5,2;-2,4;10.432;6,3;-2,5
PIRATEN;3.219;2,0;2,0;3.173;1,9;-0,3
NPD;1.730;1,1;-0,4;1.280;0,8;-0,5
Tierschutzpartei;-;-;-;1.178;0,7;0,0
MLPD;-;-;-;67;0,0;0,0
AfD;-;-;-;6.121;3,7;3,7
pro Deutschland;-;-;-;234;0,1;0,1
REP;-;-;-;93;0,1;0,1
FREIE WÄHLER;2.187;1,3;1,3;1.427;0,9;0,9
PBC;-;-;-;145;0,1;0,1
