Wahlberechtigte;187.157;-;-;187.157;-;-
Wähler;125.920;67,3;2,0;125.920;67,3;2,0
Ungültige;2.689;2,1;-1,2;2.207;1,8;-1,0
Gültige;123.231;97,9;1,2;123.713;98,2;1,0
DIE LINKE;24.681;20,0;-10,0;27.965;22,6;-6,7
SPD;29.510;23,9;-3,9;26.863;21,7;-2,4
CDU;44.301;35,9;11,9;44.230;35,8;11,4
FDP;2.498;2,0;-6,7;2.984;2,4;-6,6
GRÜNE;3.278;2,7;-1,9;4.382;3,5;-1,3
NPD;4.929;4,0;0,1;3.897;3,2;0,1
PIRATEN;2.889;2,3;2,3;2.615;2,1;-0,8
REP;-;-;-;204;0,2;-0,1
MLPD;-;-;-;138;0,1;-0,0
AfD;-;-;-;8.555;6,9;6,9
pro Deutschland;-;-;-;525;0,4;0,4
FREIE WÄHLER;-;-;-;1.355;1,1;1,1
DKP;245;0,2;0,2;-;-;-
K:Neskovic;9.999;8,1;8,1;-;-;-
Die PARTEI;901;0,7;0,7;-;-;-
