Wahlberechtigte;201.043;-;-;201.043;-;-
Wähler;123.809;61,6;2,0;123.809;61,6;2,0
Ungültige;2.170;1,8;-0,2;1.962;1,6;-0,4
Gültige;121.639;98,2;0,2;121.847;98,4;0,4
DIE LINKE;31.300;25,7;-6,0;28.933;23,7;-8,1
CDU;54.544;44,8;11,8;52.194;42,8;11,0
SPD;18.791;15,4;-3,4;19.850;16,3;0,7
FDP;1.879;1,5;-7,4;3.374;2,8;-8,6
GRÜNE;4.760;3,9;0,8;3.732;3,1;-0,7
PIRATEN;2.488;2,0;2,0;2.097;1,7;-0,3
NPD;4.854;4,0;0,5;3.920;3,2;0,2
MLPD;-;-;-;151;0,1;-0,1
AfD;-;-;-;5.234;4,3;4,3
pro Deutschland;-;-;-;475;0,4;0,4
FREIE WÄHLER;2.581;2,1;2,1;1.695;1,4;1,4
ÖDP;-;-;-;192;0,2;0,2
K:Jaschkowski;442;0,4;0,4;-;-;-
