Wahlberechtigte;201.922;-;-;201.922;-;-
Wähler;141.714;70,2;2,0;141.714;70,2;2,0
Ungültige;1.765;1,2;0,0;1.368;1,0;-0,0
Gültige;139.949;98,8;-0,0;140.346;99,0;0,0
CDU;45.999;32,9;4,1;42.902;30,6;5,5
SPD;55.021;39,3;3,4;44.240;31,5;3,7
FDP;3.158;2,3;-6,2;6.339;4,5;-8,4
GRÜNE;18.046;12,9;-4,1;20.905;14,9;-3,8
DIE LINKE;10.883;7,8;-0,8;12.960;9,2;-0,9
PIRATEN;4.161;3,0;3,0;3.789;2,7;0,6
NPD;1.750;1,3;-0,1;1.057;0,8;-0,2
REP;-;-;-;151;0,1;-0,2
Bündnis 21/RRP;-;-;-;67;0,0;-0,1
Volksabstimmung;-;-;-;248;0,2;0,1
ÖDP;-;-;-;263;0,2;0,0
MLPD;-;-;-;57;0,0;0,0
BüSo;203;0,1;0,1;59;0,0;0,0
PSG;-;-;-;34;0,0;0,0
AfD;-;-;-;4.513;3,2;3,2
BIG;-;-;-;381;0,3;0,3
pro Deutschland;-;-;-;488;0,3;0,3
DIE RECHTE;-;-;-;27;0,0;0,0
FREIE WÄHLER;728;0,5;0,5;405;0,3;0,3
Nichtwähler;-;-;-;293;0,2;0,2
PARTEI DER VERNUNFT;-;-;-;127;0,1;0,1
Die PARTEI;-;-;-;1.041;0,7;0,7
