Wahlberechtigte;209.414;-;-;209.414;-;-
Wähler;150.899;72,1;1,0;150.899;72,1;1,0
Ungültige;1.983;1,3;-0,3;1.953;1,3;-0,1
Gültige;148.916;98,7;0,3;148.946;98,7;0,1
CDU;77.800;52,2;3,8;67.437;45,3;7,0
SPD;44.773;30,1;2,3;40.185;27,0;3,0
FDP;3.226;2,2;-6,6;8.446;5,7;-11,2
GRÜNE;7.675;5,2;-1,6;10.347;6,9;-1,7
DIE LINKE;6.373;4,3;-2,2;8.055;5,4;-2,0
PIRATEN;2.769;1,9;1,9;2.849;1,9;0,5
NPD;1.491;1,0;-0,2;1.329;0,9;0,0
REP;-;-;-;152;0,1;-0,2
Bündnis 21/RRP;-;-;-;72;0,0;-0,1
Volksabstimmung;-;-;-;363;0,2;0,1
ÖDP;-;-;-;262;0,2;-0,0
MLPD;-;-;-;26;0,0;0,0
BüSo;-;-;-;18;0,0;-0,0
PSG;-;-;-;32;0,0;0,0
AfD;4.455;3,0;3,0;7.487;5,0;5,0
BIG;-;-;-;80;0,1;0,1
pro Deutschland;-;-;-;473;0,3;0,3
DIE RECHTE;-;-;-;21;0,0;0,0
FREIE WÄHLER;-;-;-;364;0,2;0,2
Nichtwähler;-;-;-;189;0,1;0,1
PARTEI DER VERNUNFT;-;-;-;130;0,1;0,1
Die PARTEI;-;-;-;629;0,4;0,4
K:Staratschek;354;0,2;0,2;-;-;-
