Wahlberechtigte;167.962;-;-;167.962;-;-
Wähler;108.599;64,7;1,7;108.599;64,7;1,7
Ungültige;1.614;1,5;0,0;1.319;1,2;0,0
Gültige;106.985;98,5;-0,0;107.280;98,8;-0,0
CDU;33.243;31,1;3,9;30.540;28,5;5,0
SPD;51.677;48,3;2,2;44.684;41,7;2,6
FDP;1.721;1,6;-4,9;3.627;3,4;-6,9
GRÜNE;5.382;5,0;-1,9;7.616;7,1;-1,8
DIE LINKE;7.752;7,2;-3,2;8.716;8,1;-3,5
PIRATEN;3.048;2,8;2,8;2.733;2,5;0,8
NPD;2.884;2,7;0,6;2.014;1,9;0,4
REP;-;-;-;370;0,3;-0,6
Bündnis 21/RRP;-;-;-;51;0,0;-0,1
Volksabstimmung;-;-;-;191;0,2;0,1
ÖDP;-;-;-;88;0,1;0,0
MLPD;240;0,2;-0,0;168;0,2;0,0
BüSo;304;0,3;-0,3;81;0,1;-0,1
PSG;-;-;-;21;0,0;-0,0
AfD;-;-;-;4.556;4,2;4,2
BIG;-;-;-;231;0,2;0,2
pro Deutschland;-;-;-;385;0,4;0,4
DIE RECHTE;-;-;-;28;0,0;0,0
FREIE WÄHLER;-;-;-;212;0,2;0,2
Nichtwähler;-;-;-;153;0,1;0,1
PARTEI DER VERNUNFT;-;-;-;92;0,1;0,1
Die PARTEI;734;0,7;0,7;723;0,7;0,7
