Wahlberechtigte;206.061;-;-;206.061;-;-
Wähler;148.181;71,9;0,7;148.181;71,9;0,7
Ungültige;2.010;1,4;0,1;1.693;1,1;0,1
Gültige;146.171;98,6;-0,1;146.488;98,9;-0,1
CDU;53.354;36,5;3,6;51.021;34,8;6,1
SPD;66.913;45,8;3,0;58.800;40,1;3,0
FDP;2.372;1,6;-5,0;5.095;3,5;-7,5
GRÜNE;5.277;3,6;-2,1;7.998;5,5;-1,5
DIE LINKE;7.827;5,4;-4,0;9.153;6,2;-4,4
PIRATEN;3.613;2,5;2,5;3.029;2,1;0,5
NPD;-;-;-;2.208;1,5;0,3
REP;-;-;-;327;0,2;-0,2
Bündnis 21/RRP;-;-;-;79;0,1;-0,1
Volksabstimmung;-;-;-;280;0,2;0,1
ÖDP;986;0,7;-0,1;465;0,3;0,0
MLPD;299;0,2;0,0;142;0,1;0,0
BüSo;-;-;-;36;0,0;0,0
PSG;-;-;-;53;0,0;0,0
AfD;5.530;3,8;3,8;6.034;4,1;4,1
BIG;-;-;-;243;0,2;0,2
pro Deutschland;-;-;-;547;0,4;0,4
DIE RECHTE;-;-;-;54;0,0;0,0
FREIE WÄHLER;-;-;-;177;0,1;0,1
Nichtwähler;-;-;-;142;0,1;0,1
PARTEI DER VERNUNFT;-;-;-;110;0,1;0,1
Die PARTEI;-;-;-;495;0,3;0,3
