Wahlberechtigte;184.009;-;-;184.009;-;-
Wähler;126.927;69,0;0,9;126.927;69,0;0,9
Ungültige;2.397;1,9;-0,5;1.794;1,4;-0,1
Gültige;124.530;98,1;0,5;125.133;98,6;0,1
CDU;37.807;30,4;3,5;35.149;28,1;5,4
SPD;60.610;48,7;-2,6;54.876;43,9;3,6
FDP;1.894;1,5;-5,3;3.528;2,8;-6,3
GRÜNE;7.194;5,8;-4,1;8.275;6,6;-2,1
DIE LINKE;9.500;7,6;7,6;10.162;8,1;-4,7
PIRATEN;3.779;3,0;3,0;3.078;2,5;0,8
NPD;3.348;2,7;0,6;2.225;1,8;0,5
REP;-;-;-;439;0,4;-0,8
Bündnis 21/RRP;-;-;-;89;0,1;-0,1
Volksabstimmung;-;-;-;267;0,2;0,1
ÖDP;-;-;-;156;0,1;0,1
MLPD;398;0,3;-0,6;198;0,2;0,0
BüSo;-;-;-;24;0,0;0,0
PSG;-;-;-;40;0,0;0,0
AfD;-;-;-;4.949;4,0;4,0
BIG;-;-;-;224;0,2;0,2
pro Deutschland;-;-;-;463;0,4;0,4
DIE RECHTE;-;-;-;54;0,0;0,0
FREIE WÄHLER;-;-;-;217;0,2;0,2
Nichtwähler;-;-;-;152;0,1;0,1
PARTEI DER VERNUNFT;-;-;-;88;0,1;0,1
Die PARTEI;-;-;-;480;0,4;0,4
