Wahlberechtigte;207.261;-;-;207.261;-;-
Wähler;145.679;70,3;5,6;145.679;70,3;5,6
Ungültige;2.706;1,9;0,2;2.490;1,7;0,1
Gültige;142.973;98,1;-0,2;143.189;98,3;-0,1
CDU;76.666;53,6;8,4;64.622;45,1;7,6
DIE LINKE;25.279;17,7;-3,7;26.735;18,7;-4,0
SPD;18.090;12,7;0,1;18.024;12,6;-0,5
FDP;3.461;2,4;-6,6;5.253;3,7;-10,9
GRÜNE;4.817;3,4;-2,7;5.721;4,0;-1,8
NPD;6.463;4,5;-0,6;5.588;3,9;-1,1
BüSo;1.618;1,1;1,1;494;0,3;-0,5
MLPD;-;-;-;136;0,1;-0,1
AfD;-;-;-;10.195;7,1;7,1
pro Deutschland;2.979;2,1;2,1;1.282;0,9;0,9
FREIE WÄHLER;-;-;-;1.887;1,3;1,3
PIRATEN;3.600;2,5;2,5;3.252;2,3;2,3
