Wahlberechtigte;223.614;-;-;223.614;-;-
Wähler;152.944;68,4;5,7;152.944;68,4;5,7
Ungültige;3.261;2,1;0,3;2.983;2,0;0,2
Gültige;149.683;97,9;-0,3;149.961;98,0;-0,2
CDU;74.204;49,6;7,2;66.106;44,1;6,7
DIE LINKE;29.550;19,7;-4,6;29.380;19,6;-5,0
SPD;22.741;15,2;3,6;18.839;12,6;-0,1
FDP;2.442;1,6;-7,8;4.185;2,8;-10,3
GRÜNE;5.045;3,4;-1,7;5.044;3,4;-1,4
NPD;8.323;5,6;0,2;6.360;4,2;-1,2
BüSo;2.069;1,4;-0,5;685;0,5;-1,0
MLPD;-;-;-;172;0,1;-0,2
AfD;-;-;-;12.331;8,2;8,2
pro Deutschland;-;-;-;1.023;0,7;0,7
FREIE WÄHLER;-;-;-;2.577;1,7;1,7
PIRATEN;3.878;2,6;2,6;3.259;2,2;2,2
BGD;1.431;1,0;1,0;-;-;-
