Wahlberechtigte;224.555;-;-;224.555;-;-
Wähler;160.695;71,6;-0,8;160.695;71,6;-0,8
Ungültige;5.232;3,3;0,6;4.216;2,6;0,2
Gültige;155.463;96,7;-0,6;156.479;97,4;-0,2
CDU;54.674;35,2;4,8;48.361;30,9;5,4
SPD;62.178;40,0;2,0;53.232;34,0;2,8
FDP;3.192;2,1;-5,7;6.259;4,0;-8,6
GRÜNE;16.559;10,7;-1,6;19.884;12,7;-2,1
DIE LINKE;13.066;8,4;-1,5;13.680;8,7;-2,5
PIRATEN;4.624;3,0;3,0;3.575;2,3;0,0
NPD;-;-;-;1.218;0,8;-0,0
REP;-;-;-;198;0,1;-0,2
BüSo;-;-;-;51;0,0;-0,1
MLPD;325;0,2;0,0;165;0,1;-0,0
AfD;-;-;-;7.977;5,1;5,1
pro Deutschland;-;-;-;155;0,1;0,1
FREIE WÄHLER;-;-;-;839;0,5;0,5
Die PARTEI;-;-;-;796;0,5;0,5
PSG;-;-;-;89;0,1;0,1
K:Stolte;845;0,5;0,5;-;-;-
