Wahlberechtigte;180.203;-;-;180.203;-;-
Wähler;131.446;72,9;-0,7;131.446;72,9;-0,7
Ungültige;4.632;3,5;0,8;4.193;3,2;0,5
Gültige;126.814;96,5;-0,8;127.253;96,8;-0,5
CDU;51.386;40,5;5,9;45.872;36,0;5,8
SPD;54.630;43,1;2,7;46.913;36,9;2,5
FDP;2.513;2,0;-7,3;5.014;3,9;-9,3
GRÜNE;6.333;5,0;-0,7;8.868;7,0;-1,1
DIE LINKE;7.277;5,7;-2,7;7.584;6,0;-3,8
PIRATEN;2.283;1,8;1,8;1.954;1,5;0,1
NPD;2.392;1,9;0,3;2.013;1,6;0,1
REP;-;-;-;170;0,1;-0,2
BüSo;-;-;-;55;0,0;-0,1
MLPD;-;-;-;41;0,0;0,0
AfD;-;-;-;7.096;5,6;5,6
pro Deutschland;-;-;-;136;0,1;0,1
FREIE WÄHLER;-;-;-;961;0,8;0,8
Die PARTEI;-;-;-;521;0,4;0,4
PSG;-;-;-;55;0,0;0,0
