Wahlberechtigte;221.650;-;-;221.650;-;-
Wähler;158.240;71,4;-0,4;158.240;71,4;-0,4
Ungültige;4.637;2,9;0,4;3.990;2,5;-0,1
Gültige;153.603;97,1;-0,4;154.250;97,5;0,1
CDU;69.930;45,5;5,3;59.905;38,8;7,0
SPD;47.984;31,2;2,5;40.203;26,1;3,8
FDP;4.376;2,8;-7,4;9.836;6,4;-12,0
GRÜNE;12.548;8,2;-1,7;16.503;10,7;-2,1
DIE LINKE;9.479;6,2;-1,3;10.205;6,6;-2,3
PIRATEN;3.780;2,5;2,5;3.627;2,4;-0,1
NPD;2.538;1,7;0,1;1.663;1,1;-0,1
REP;-;-;-;626;0,4;-0,3
BüSo;-;-;-;49;0,0;-0,1
MLPD;-;-;-;40;0,0;-0,0
AfD;-;-;-;8.994;5,8;5,8
pro Deutschland;-;-;-;224;0,1;0,1
FREIE WÄHLER;2.968;1,9;1,9;1.461;0,9;0,9
Die PARTEI;-;-;-;839;0,5;0,5
PSG;-;-;-;75;0,0;0,0
