Wahlberechtigte;238.320;-;-;238.320;-;-
Wähler;168.091;70,5;3,3;168.091;70,5;3,3
Ungültige;2.570;1,5;0,1;2.512;1,5;0,3
Gültige;165.521;98,5;-0,1;165.579;98,5;-0,3
CDU;59.731;36,1;7,4;57.690;34,8;7,2
DIE LINKE;44.657;27,0;-3,4;42.367;25,6;-4,3
SPD;30.310;18,3;-3,0;26.279;15,9;-1,3
FDP;2.755;1,7;-8,0;4.653;2,8;-7,5
GRÜNE;7.863;4,8;-2,3;11.435;6,9;-1,2
NPD;4.225;2,6;-0,4;4.365;2,6;0,1
PIRATEN;3.958;2,4;2,4;4.669;2,8;-0,6
ÖDP / Familie ..;1.189;0,7;0,7;1.093;0,7;0,3
REP;-;-;-;300;0,2;-0,2
MLPD;-;-;-;241;0,1;0,0
AfD;9.126;5,5;5,5;10.988;6,6;6,6
FREIE WÄHLER;1.356;0,8;0,8;1.499;0,9;0,9
PARTEI DER VERNUNFT;351;0,2;0,2;-;-;-
