Wahlberechtigte;251.146;-;-;251.146;-;-
Wähler;188.417;75,0;-1,3;188.417;75,0;-1,3
Ungültige;1.377;0,7;-0,4;1.164;0,6;-0,2
Gültige;187.040;99,3;0,4;187.253;99,4;0,2
CSU;103.904;55,6;6,6;94.458;50,4;7,7
SPD;37.575;20,1;1,1;34.660;18,5;2,8
FDP;4.196;2,2;-8,9;9.455;5,0;-11,1
GRÜNE;14.515;7,8;-3,0;16.586;8,9;-3,6
DIE LINKE;5.096;2,7;-1,1;5.711;3,0;-1,7
PIRATEN;4.259;2,3;2,3;3.599;1,9;-0,0
NPD;-;-;-;901;0,5;-0,3
ÖDP;2.814;1,5;-0,2;2.056;1,1;0,1
REP;-;-;-;540;0,3;-0,2
Bündnis 21/RRP;-;-;-;62;0,0;-1,2
BP;-;-;-;2.086;1,1;0,0
Tierschutzpartei;-;-;-;1.401;0,7;0,0
DIE VIOLETTEN;-;-;-;240;0,1;-0,1
BüSo;-;-;-;23;0,0;-0,0
MLPD;-;-;-;40;0,0;0,0
AfD;8.672;4,6;4,6;9.807;5,2;5,2
pro Deutschland;-;-;-;161;0,1;0,1
DIE FRAUEN;-;-;-;275;0,1;0,1
FREIE WÄHLER;6.009;3,2;3,2;5.051;2,7;2,7
PARTEI DER VERNUNFT;-;-;-;141;0,1;0,1
