Wahlberechtigte;215.368;-;-;215.368;-;-
Wähler;154.146;71,6;-2,0;154.146;71,6;-2,0
Ungültige;975;0,6;-0,4;749;0,5;-0,2
Gültige;153.171;99,4;0,4;153.397;99,5;0,2
CSU;66.513;43,4;5,2;58.097;37,9;4,9
SPD;43.571;28,4;0,0;36.877;24,0;4,4
FDP;4.650;3,0;-8,0;10.727;7,0;-9,6
GRÜNE;17.407;11,4;-1,9;21.440;14,0;-3,0
DIE LINKE;6.027;3,9;-1,4;7.341;4,8;-2,1
PIRATEN;3.950;2,6;2,6;4.003;2,6;0,3
NPD;744;0,5;-0,4;632;0,4;-0,3
ÖDP;2.598;1,7;0,3;1.418;0,9;0,1
REP;-;-;-;283;0,2;-0,1
Bündnis 21/RRP;-;-;-;46;0,0;-0,7
BP;-;-;-;1.088;0,7;0,2
Tierschutzpartei;-;-;-;1.092;0,7;0,1
DIE VIOLETTEN;-;-;-;224;0,1;-0,1
BüSo;138;0,1;-0,2;49;0,0;-0,1
MLPD;-;-;-;42;0,0;-0,0
AfD;4.661;3,0;3,0;7.082;4,6;4,6
pro Deutschland;-;-;-;82;0,1;0,1
DIE FRAUEN;-;-;-;256;0,2;0,2
FREIE WÄHLER;2.912;1,9;1,9;2.493;1,6;1,6
PARTEI DER VERNUNFT;-;-;-;125;0,1;0,1
