Wahlberechtigte;179.923;-;-;179.923;-;-
Wähler;126.869;70,5;-2,3;126.869;70,5;-2,3
Ungültige;995;0,8;-0,4;920;0,7;-0,2
Gültige;125.874;99,2;0,4;125.949;99,3;0,2
CSU;65.723;52,2;3,2;61.546;48,9;4,0
SPD;28.794;22,9;2,4;24.924;19,8;4,5
FDP;4.252;3,4;-7,3;6.073;4,8;-8,9
GRÜNE;10.283;8,2;-1,0;11.267;8,9;-1,6
DIE LINKE;4.365;3,5;-2,5;5.143;4,1;-2,4
PIRATEN;3.025;2,4;2,4;2.905;2,3;-0,1
NPD;1.661;1,3;-0,2;1.619;1,3;-0,1
ÖDP;-;-;-;792;0,6;0,0
REP;-;-;-;586;0,5;-1,0
Bündnis 21/RRP;-;-;-;40;0,0;-0,5
BP;-;-;-;570;0,5;-0,1
Tierschutzpartei;-;-;-;964;0,8;0,1
DIE VIOLETTEN;-;-;-;139;0,1;-0,1
BüSo;-;-;-;19;0,0;-0,0
MLPD;-;-;-;60;0,0;0,0
AfD;4.222;3,4;3,4;5.211;4,1;4,1
pro Deutschland;-;-;-;82;0,1;0,1
DIE FRAUEN;-;-;-;319;0,3;0,3
FREIE WÄHLER;3.549;2,8;2,8;3.559;2,8;2,8
PARTEI DER VERNUNFT;-;-;-;131;0,1;0,1
