Wahlberechtigte;185.799;-;-;185.799;-;-
Wähler;121.814;65,6;-2,0;121.814;65,6;-2,0
Ungültige;1.157;0,9;-0,4;1.239;1,0;-0,1
Gültige;120.657;99,1;0,4;120.575;99,0;0,1
CSU;53.519;44,4;5,8;48.881;40,5;6,0
SPD;38.942;32,3;2,1;34.363;28,5;3,6
FDP;2.192;1,8;-6,7;5.087;4,2;-7,6
GRÜNE;8.165;6,8;-1,4;9.705;8,0;-1,8
DIE LINKE;6.038;5,0;-3,8;6.948;5,8;-3,7
PIRATEN;3.056;2,5;0,4;2.936;2,4;-0,2
NPD;1.701;1,4;-1,1;1.572;1,3;-0,8
ÖDP;-;-;-;761;0,6;0,0
REP;-;-;-;481;0,4;-0,2
Bündnis 21/RRP;168;0,1;-0,9;110;0,1;-1,1
BP;-;-;-;318;0,3;0,0
Tierschutzpartei;-;-;-;890;0,7;-0,0
DIE VIOLETTEN;-;-;-;114;0,1;-0,1
BüSo;-;-;-;11;0,0;-0,0
MLPD;-;-;-;50;0,0;-0,0
AfD;4.498;3,7;3,7;5.737;4,8;4,8
pro Deutschland;-;-;-;79;0,1;0,1
DIE FRAUEN;-;-;-;214;0,2;0,2
FREIE WÄHLER;2.378;2,0;2,0;2.187;1,8;1,8
PARTEI DER VERNUNFT;-;-;-;131;0,1;0,1
