Wahlberechtigte;197.762;-;-;197.762;-;-
Wähler;143.137;72,4;-1,7;143.137;72,4;-1,7
Ungültige;2.024;1,4;-0,7;1.707;1,2;-0,4
Gültige;141.113;98,6;0,7;141.430;98,8;0,4
CSU;73.001;51,7;-0,6;69.953;49,5;5,7
SPD;32.812;23,3;3,4;30.486;21,6;3,7
FDP;3.632;2,6;-6,3;6.413;4,5;-9,5
GRÜNE;8.810;6,2;-3,2;9.972;7,1;-2,8
DIE LINKE;4.426;3,1;-3,0;4.839;3,4;-3,0
PIRATEN;2.822;2,0;2,0;2.670;1,9;-0,1
NPD;1.360;1,0;-0,2;1.404;1,0;-0,1
ÖDP;-;-;-;915;0,6;-0,1
REP;1.223;0,9;-0,7;1.001;0,7;-0,5
Bündnis 21/RRP;330;0,2;0,2;151;0,1;-0,6
BP;-;-;-;525;0,4;0,1
Tierschutzpartei;-;-;-;1.119;0,8;0,1
DIE VIOLETTEN;-;-;-;167;0,1;-0,1
BüSo;-;-;-;31;0,0;-0,0
MLPD;-;-;-;25;0,0;-0,0
AfD;4.652;3,3;3,3;5.583;3,9;3,9
pro Deutschland;-;-;-;90;0,1;0,1
DIE FRAUEN;-;-;-;301;0,2;0,2
FREIE WÄHLER;8.045;5,7;5,7;5.619;4,0;4,0
PARTEI DER VERNUNFT;-;-;-;166;0,1;0,1
