Wahlberechtigte;191.191;-;-;191.191;-;-
Wähler;152.546;79,8;2,5;152.546;79,8;2,5
Ungültige;1.298;0,9;-0,2;1.046;0,7;-0,1
Gültige;151.248;99,1;0,2;151.500;99,3;0,1
CDU;63.465;42,0;7,5;56.794;37,5;9,6
SPD;25.050;16,6;-1,4;31.766;21,0;2,1
FDP;3.894;2,6;-7,7;12.548;8,3;-11,2
GRÜNE;41.522;27,5;-2,4;26.534;17,5;-4,5
DIE LINKE;5.824;3,9;-0,8;9.432;6,2;-0,5
PIRATEN;3.315;2,2;0,5;4.338;2,9;0,4
NPD;673;0,4;-0,3;506;0,3;-0,2
REP;-;-;-;224;0,1;-0,4
Tierschutzpartei;-;-;-;860;0,6;0,1
ÖDP;697;0,5;0,5;528;0,3;-0,0
PBC;-;-;-;170;0,1;-0,1
Volksabstimmung;-;-;-;141;0,1;-0,0
MLPD;-;-;-;103;0,1;-0,0
BüSo;161;0,1;-0,2;79;0,1;-0,1
AfD;4.151;2,7;2,7;6.281;4,1;4,1
BIG;-;-;-;136;0,1;0,1
pro Deutschland;-;-;-;66;0,0;0,0
FREIE WÄHLER;864;0,6;0,6;645;0,4;0,4
PARTEI DER VERNUNFT;-;-;-;91;0,1;0,1
RENTNER;-;-;-;258;0,2;0,2
K:Gäbel;84;0,1;0,1;-;-;-
K:Schweizer;1.472;1,0;1,0;-;-;-
K:Ressdorf;76;0,1;0,1;-;-;-
