Wahlberechtigte;241.656;-;-;241.656;-;-
Wähler;173.772;71,9;1,8;173.772;71,9;1,8
Ungültige;2.885;1,7;-0,3;2.182;1,3;-0,3
Gültige;170.887;98,3;0,3;171.590;98,7;0,3
CDU;87.777;51,4;7,1;78.544;45,8;10,9
SPD;46.231;27,1;2,0;37.933;22,1;0,9
FDP;6.178;3,6;-8,4;10.927;6,4;-12,8
GRÜNE;12.771;7,5;-1,3;14.662;8,5;-1,6
DIE LINKE;7.554;4,4;-2,0;8.138;4,7;-2,6
PIRATEN;4.599;2,7;2,7;3.789;2,2;0,3
NPD;3.905;2,3;0,1;2.672;1,6;-0,0
REP;-;-;-;715;0,4;-0,7
Tierschutzpartei;-;-;-;1.250;0,7;0,0
ÖDP;1.469;0,9;-0,1;731;0,4;-0,2
PBC;-;-;-;432;0,3;-0,3
Volksabstimmung;-;-;-;308;0,2;-0,0
MLPD;403;0,2;0,0;126;0,1;-0,0
BüSo;-;-;-;28;0,0;-0,0
AfD;-;-;-;9.271;5,4;5,4
BIG;-;-;-;322;0,2;0,2
pro Deutschland;-;-;-;261;0,2;0,2
FREIE WÄHLER;-;-;-;771;0,4;0,4
PARTEI DER VERNUNFT;-;-;-;166;0,1;0,1
RENTNER;-;-;-;544;0,3;0,3
