Wahlberechtigte;209.733;-;-;209.733;-;-
Wähler;159.992;76,3;1,7;159.992;76,3;1,7
Ungültige;2.737;1,7;-0,2;1.887;1,2;-0,3
Gültige;157.255;98,3;0,2;158.105;98,8;0,3
CDU;83.848;53,3;8,1;73.805;46,7;10,6
SPD;40.735;25,9;0,3;33.416;21,1;0,8
FDP;4.490;2,9;-8,7;9.553;6,0;-13,1
GRÜNE;12.298;7,8;-2,3;15.175;9,6;-2,2
DIE LINKE;5.896;3,7;-1,9;6.461;4,1;-2,4
PIRATEN;4.374;2,8;2,8;3.761;2,4;0,2
NPD;1.853;1,2;-0,3;1.301;0,8;-0,2
REP;1.224;0,8;0,8;730;0,5;-0,3
Tierschutzpartei;-;-;-;1.278;0,8;0,1
ÖDP;-;-;-;346;0,2;-0,0
PBC;-;-;-;491;0,3;-0,3
Volksabstimmung;-;-;-;258;0,2;-0,1
MLPD;-;-;-;41;0,0;-0,0
BüSo;-;-;-;16;0,0;-0,0
AfD;-;-;-;9.473;6,0;6,0
BIG;-;-;-;62;0,0;0,0
pro Deutschland;-;-;-;196;0,1;0,1
FREIE WÄHLER;2.537;1,6;1,6;1.205;0,8;0,8
PARTEI DER VERNUNFT;-;-;-;151;0,1;0,1
RENTNER;-;-;-;386;0,2;0,2
