Wahlberechtigte;213.424;-;-;213.424;-;-
Wähler;155.585;72,9;1,9;155.585;72,9;1,9
Ungültige;2.300;1,5;-0,7;2.339;1,5;-0,5
Gültige;153.285;98,5;0,7;153.246;98,5;0,5
CDU;90.624;59,1;8,9;79.516;51,9;9,9
SPD;32.696;21,3;1,3;30.269;19,8;1,3
FDP;2.807;1,8;-9,6;7.956;5,2;-11,7
GRÜNE;9.019;5,9;-2,9;10.984;7,2;-2,0
DIE LINKE;5.158;3,4;-3,2;6.379;4,2;-2,7
PIRATEN;2.968;1,9;1,9;3.049;2,0;0,2
NPD;2.177;1,4;-0,5;2.023;1,3;-0,0
REP;-;-;-;615;0,4;-0,5
Tierschutzpartei;-;-;-;1.199;0,8;0,0
ÖDP;1.556;1,0;-0,0;1.030;0,7;-0,1
PBC;-;-;-;213;0,1;-0,2
Volksabstimmung;-;-;-;299;0,2;-0,0
MLPD;-;-;-;34;0,0;-0,0
BüSo;-;-;-;24;0,0;-0,0
AfD;6.280;4,1;4,1;7.994;5,2;5,2
BIG;-;-;-;75;0,0;0,0
pro Deutschland;-;-;-;149;0,1;0,1
FREIE WÄHLER;-;-;-;911;0,6;0,6
PARTEI DER VERNUNFT;-;-;-;141;0,1;0,1
RENTNER;-;-;-;386;0,3;0,3
