Wahlberechtigte;195.953;-;-;195.953;-;-
Wähler;145.107;74,1;1,3;145.107;74,1;1,3
Ungültige;2.468;1,7;-0,7;2.072;1,4;-0,4
Gültige;142.639;98,3;0,7;143.035;98,6;0,4
CDU;73.944;51,8;5,0;66.656;46,6;10,6
SPD;35.252;24,7;1,1;30.861;21,6;1,4
FDP;3.966;2,8;-8,7;8.133;5,7;-13,5
GRÜNE;9.678;6,8;-2,0;11.696;8,2;-2,0
DIE LINKE;5.345;3,7;-3,5;6.357;4,4;-3,3
PIRATEN;3.396;2,4;2,4;3.556;2,5;0,3
NPD;1.716;1,2;-0,9;1.628;1,1;-0,2
REP;1.261;0,9;0,9;1.042;0,7;-0,5
Tierschutzpartei;-;-;-;1.416;1,0;0,1
ÖDP;-;-;-;278;0,2;-0,1
PBC;-;-;-;164;0,1;-0,2
Volksabstimmung;-;-;-;272;0,2;-0,1
MLPD;-;-;-;42;0,0;-0,0
BüSo;-;-;-;22;0,0;-0,0
AfD;6.277;4,4;4,4;8.700;6,1;6,1
BIG;-;-;-;89;0,1;0,1
pro Deutschland;-;-;-;168;0,1;0,1
FREIE WÄHLER;1.804;1,3;1,3;1.364;1,0;1,0
PARTEI DER VERNUNFT;-;-;-;173;0,1;0,1
RENTNER;-;-;-;418;0,3;0,3
