Wahlberechtigte;204.905;-;-;204.905;-;-
Wähler;142.400;69,5;-1,3;142.400;69,5;-1,3
Ungültige;3.349;2,4;0,5;3.065;2,2;0,7
Gültige;139.051;97,6;-0,5;139.335;97,8;-0,7
CDU;51.324;36,9;5,1;46.513;33,4;6,9
SPD;50.286;36,2;5,8;43.329;31,1;7,2
DIE LINKE;15.202;10,9;-11,2;16.268;11,7;-12,3
FDP;2.410;1,7;-5,6;6.246;4,5;-7,7
GRÜNE;7.422;5,3;-1,4;10.910;7,8;-0,9
FAMILIE;-;-;-;1.560;1,1;0,0
PIRATEN;3.904;2,8;2,8;4.110;2,9;1,2
NPD;2.550;1,8;0,5;2.582;1,9;0,7
MLPD;267;0,2;-0,0;160;0,1;0,0
AfD;5.686;4,1;4,1;6.575;4,7;4,7
pro Deutschland;-;-;-;233;0,2;0,2
FREIE WÄHLER;-;-;-;849;0,6;0,6
