Wahlberechtigte;211.529;-;-;211.529;-;-
Wähler;154.287;72,9;-1,3;154.287;72,9;-1,3
Ungültige;4.360;2,8;0,3;4.357;2,8;0,7
Gültige;149.927;97,2;-0,3;149.930;97,2;-0,7
CDU;66.694;44,5;7,0;60.052;40,1;7,7
SPD;52.303;34,9;2,0;46.037;30,7;6,5
DIE LINKE;10.936;7,3;-8,3;13.458;9,0;-10,9
FDP;1.872;1,2;-6,2;5.480;3,7;-8,9
GRÜNE;5.577;3,7;-1,6;7.873;5,3;-1,3
FAMILIE;-;-;-;1.653;1,1;-0,2
PIRATEN;3.652;2,4;2,4;3.739;2,5;1,1
NPD;2.475;1,7;0,3;2.610;1,7;0,5
MLPD;-;-;-;71;0,0;0,0
AfD;6.418;4,3;4,3;7.645;5,1;5,1
pro Deutschland;-;-;-;237;0,2;0,2
FREIE WÄHLER;-;-;-;1.075;0,7;0,7
