Wahlberechtigte,240 010,240 010
Wähler,180 295,180 295
Ungültige,3 674,3 303
Gültige,176 621,176 992
SPD,54 065,44 445
CDU,70 290,58 225
FDP,20 084,31 407
DIE LINKE,12 527,14 280
GRÜNE,16 633,21 245
NPD,1 797,1 687
MLPD,-,58
PIRATEN,-,3 598
K:Strub,783,-
K:Schepke,442,-
