Wahlberechtigte,237 144,237 144
Wähler,181 568,181 568
Ungültige,3 884,3 259
Gültige,177 684,178 309
SPD,53 073,45 354
CDU,70 874,59 075
FDP,19 742,30 714
DIE LINKE,12 351,13 855
GRÜNE,18 761,22 240
NPD,2 330,2 126
MLPD,-,48
DIE VIOLETTEN,553,-
PIRATEN,-,3 248
