Wahlberechtigte,247 700,247 700
Wähler,153 434,153 434
Ungültige,3 498,3 085
Gültige,149 936,150 349
SPD,22 994,20 979
CDU,52 897,53 411
FDP,11 746,13 987
DIE LINKE,46 343,44 748
GRÜNE,5 412,5 705
NPD,8 369,7 776
REP,-,340
MLPD,-,294
PIRATEN,-,3 109
K:Raemdonck van,1478,-
K:Wiest,657,-
