Wahlberechtigte,226 440,226 440
Wähler,161 584,161 584
Ungültige,1 970,1 821
Gültige,159 614,159 763
SPD,55 374,45 895
CDU,56 273,49 810
FDP,16 163,23 109
DIE LINKE,13 751,15 906
GRÜNE,14 446,16 731
NPD,2 346,2 009
Tierschutzpartei,-,1 519
MLPD,-,49
ÖDP,-,179
PIRATEN,-,2 879
Bündnis 21/RRP,1 261,1 506
