Wahlberechtigte,192 320,192 320
Wähler,144 883,144 883
Ungültige,1 642,1 337
Gültige,143 241,143 546
SPD,52 397,41 979
CDU,53 080,45 908
FDP,10 787,17 889
DIE LINKE,12 242,13 830
GRÜNE,12 318,17 053
NPD,2 417,1 981
Tierschutzpartei,-,1 228
MLPD,-,24
ÖDP,-,152
PIRATEN,-,2 339
Bündnis 21/RRP,-,976
