Wahlberechtigte,177 098,177 098
Wähler,131 466,131 466
Ungültige,1 695,1 366
Gültige,129 771,130 100
SPD,40 411,32 321
CDU,43 229,37 291
FDP,11 242,16 323
DIE LINKE,11 935,13 166
GRÜNE,19 645,23 543
NPD,1 860,1 594
Tierschutzpartei,-,1 002
MLPD,-,32
ÖDP,-,194
PIRATEN,-,2 795
Bündnis 21/RRP,1 449,1 704
