Wahlberechtigte,198 376,198 376
Wähler,143 398,143 398
Ungültige,1 706,1 376
Gültige,141 692,142 022
SPD,58 649,46 797
CDU,52 714,45 750
FDP,8 712,17 698
DIE LINKE,8 797,10 847
GRÜNE,10 217,13 815
NPD,2 036,1 858
Tierschutzpartei,-,1 079
MLPD,-,42
ÖDP,-,183
PIRATEN,-,2 454
Bündnis 21/RRP,-,1 352
K:Stöckel,658,-
