Wahlberechtigte,256 131,256 131
Wähler,188 189,188 189
Ungültige,2 557,2 099
Gültige,185 632,186 090
SPD,62 588,52 387
CDU,53 255,46 284
FDP,13 587,21 021
DIE LINKE,21 226,24 883
GRÜNE,31 564,32 556
NPD,2 012,1 567
REP,-,247
PBC,-,458
MLPD,343,133
PIRATEN,-,4 564
Bündnis 21/RRP,-,1 617
K:Kurnaz,361,-
