Wahlberechtigte,246 651,246 651
Wähler,170 204,170 204
Ungültige,5 598,4 739
Gültige,164 606,165 465
SPD,53 384,42 834
CDU,40 882,39 092
FDP,11 959,16 102
DIE LINKE,43 348,44 923
GRÜNE,9 041,9 912
NPD,5 992,4 711
REP,-,368
MLPD,-,162
BüSo,-,397
PIRATEN,-,4 357
