Wahlberechtigte,232 086,232 086
Wähler,136 840,136 840
Ungültige,3 127,2 738
Gültige,133 713,134 102
SPD,23 028,21 030
CDU,43 014,39 645
FDP,10 818,14 574
DIE LINKE,47 051,46 802
GRÜNE,5 465,4 977
NPD,4 337,3 713
MLPD,-,331
PIRATEN,-,2 623
K:Jaschkowski,232,-
