Wahlberechtigte,217 335,217 335
Wähler,172 795,172 795
Ungültige,2 610,2 188
Gültige,170 185,170 607
SPD,45 691,34 488
CDU,66 075,53 085
FDP,15 138,28 876
DIE LINKE,9 325,12 270
GRÜNE,27 392,33 004
NPD,1 544,1 309
REP,-,472
FAMILIE,1 416,-
Tierschutzpartei,-,1 860
MLPD,-,34
BüSo,462,283
DKP,-,36
DIE VIOLETTEN,875,623
ÖDP,-,312
PIRATEN,-,3 739
K:Kaute,1396,-
