Wahlberechtigte,203 416,203 416
Wähler,128 897,128 897
Ungültige,2 496,2 224
Gültige,126 401,126 673
SPD,20 336,20 906
CDU,24 563,22 875
FDP,6 969,9 741
DIE LINKE,60 236,51 662
GRÜNE,7 242,8 847
NPD,4 725,3 832
REP,-,456
Tierschutzpartei,-,2 189
MLPD,-,127
BüSo,1 564,579
DKP,-,235
DIE VIOLETTEN,-,249
ÖDP,-,189
PIRATEN,-,4 274
K:Wende,625,-
