Wahlberechtigte,186 798,186 798
Wähler,127 011,127 011
Ungültige,1 718,1 178
Gültige,125 293,125 833
SPD,43 837,33 774
CDU,42 094,34 195
FDP,10 902,18 981
DIE LINKE,10 614,12 092
GRÜNE,15 557,20 019
NPD,1 971,1 398
REP,-,368
FAMILIE,-,433
Tierschutzpartei,-,816
MLPD,-,70
BüSo,-,25
Volksabstimmung,-,179
ZENTRUM,-,74
ÖDP,-,146
PIRATEN,-,2 522
Bündnis 21/RRP,-,214
K:Schmitz,464,-
