Wahlberechtigte,207 451,207 451
Wähler,151 261,151 261
Ungültige,1 740,1 553
Gültige,149 521,149 708
SPD,57 225,48 139
CDU,57 576,49 564
FDP,10 624,19 441
DIE LINKE,11 071,12 676
GRÜNE,9 873,12 853
NPD,1 569,1 323
REP,-,395
FAMILIE,1 583,923
Tierschutzpartei,-,969
MLPD,-,30
BüSo,-,28
Volksabstimmung,-,97
ZENTRUM,-,86
ÖDP,-,114
PIRATEN,-,2 335
Bündnis 21/RRP,-,187
