Wahlberechtigte,182 878,182 878
Wähler,129 601,129 601
Ungültige,1 681,1 412
Gültige,127 920,128 189
SPD,50 636,40 990
CDU,44 906,38 812
FDP,11 098,18 168
DIE LINKE,10 123,11 438
GRÜNE,9 462,12 727
NPD,1 425,1 091
REP,-,308
FAMILIE,-,535
Tierschutzpartei,-,841
MLPD,270,108
BüSo,-,21
Volksabstimmung,-,102
ZENTRUM,-,72
ÖDP,-,76
PIRATEN,-,2 078
Bündnis 21/RRP,-,187
