Wahlberechtigte,192 966,192 966
Wähler,143 782,143 782
Ungültige,1 842,1 371
Gültige,141 940,142 411
SPD,58 679,43 523
CDU,61 444,51 067
FDP,11 613,20 001
DIE LINKE,9 075,9 250
GRÜNE,-,13 366
NPD,1 129,929
REP,-,204
FAMILIE,-,686
Tierschutzpartei,-,555
MLPD,-,14
BüSo,-,24
Volksabstimmung,-,56
ZENTRUM,-,63
ÖDP,-,85
PIRATEN,-,2 047
Bündnis 21/RRP,-,169
