Wahlberechtigte,233 781,233 781
Wähler,165 115,165 115
Ungültige,2 497,2 079
Gültige,162 618,163 036
SPD,62 644,53 661
CDU,61 244,53 025
FDP,15 549,22 018
DIE LINKE,12 090,12 887
GRÜNE,11 091,14 121
NPD,-,1 362
REP,-,603
FAMILIE,-,856
Tierschutzpartei,-,942
MLPD,-,31
BüSo,-,26
Volksabstimmung,-,189
ZENTRUM,-,56
ÖDP,-,137
PIRATEN,-,2 373
Bündnis 21/RRP,-,215
