Wahlberechtigte,214 358,214 358
Wähler,153 800,153 800
Ungültige,1 853,1 579
Gültige,151 947,152 221
SPD,65 810,55 224
CDU,47 030,37 763
FDP,8 578,16 390
DIE LINKE,14 741,16 442
GRÜNE,12 775,18 094
NPD,2 268,1 796
REP,-,360
FAMILIE,-,608
Tierschutzpartei,-,1 171
MLPD,259,126
BüSo,486,100
Volksabstimmung,-,126
ZENTRUM,-,57
ÖDP,-,119
PIRATEN,-,2 943
Bündnis 21/RRP,-,214
K:Höwing,285,-
