Wahlberechtigte,214 213,214 213
Wähler,149 331,149 331
Ungültige,1 556,1 258
Gültige,147 775,148 073
SPD,60 839,48 882
CDU,40 623,36 237
FDP,12 890,17 813
DIE LINKE,14 273,16 272
GRÜNE,16 141,20 133
NPD,2 281,1 469
REP,-,231
FAMILIE,-,521
Tierschutzpartei,-,960
MLPD,288,146
BüSo,440,103
Volksabstimmung,-,128
ZENTRUM,-,63
ÖDP,-,105
PIRATEN,-,3 311
Bündnis 21/RRP,-,201
