Wahlberechtigte,232 781,232 781
Wähler,165 293,165 293
Ungültige,2 204,1 921
Gültige,163 089,163 372
SPD,47 583,41 522
CDU,74 725,59 805
FDP,15 625,27 675
DIE LINKE,11 432,12 460
GRÜNE,11 924,14 081
NPD,1 800,1 324
REP,-,388
FAMILIE,-,1 037
Tierschutzpartei,-,922
MLPD,-,13
BüSo,-,48
Volksabstimmung,-,149
ZENTRUM,-,123
ÖDP,-,106
PIRATEN,-,2 612
Bündnis 21/RRP,-,315
