Wahlberechtigte,210 993,210 993
Wähler,146 986,146 986
Ungültige,1 788,1 661
Gültige,145 198,145 325
SPD,59 521,41 755
CDU,52 751,51 494
FDP,11 740,20 616
DIE LINKE,10 431,12 450
GRÜNE,6 207,10 589
NPD,2 331,1 902
REP,-,555
FAMILIE,-,810
Tierschutzpartei,2 217,1 310
MLPD,-,48
BüSo,-,25
Volksabstimmung,-,169
ZENTRUM,-,67
ÖDP,-,105
PIRATEN,-,2 181
Bündnis 21/RRP,-,335
