Wahlberechtigte,202 455,202 455
Wähler,129 834,129 834
Ungültige,1 719,1 523
Gültige,128 115,128 311
SPD,24 866,23 070
CDU,42 704,38 471
FDP,11 781,16 478
DIE LINKE,34 015,32 762
GRÜNE,8 856,11 474
NPD,4 202,4 225
REP,-,340
MLPD,-,294
BüSo,1 691,1 197
