Wahlberechtigte,231 084,231 084
Wähler,148 389,148 389
Ungültige,2 283,2 081
Gültige,146 106,146 308
SPD,23 471,23 354
CDU,60 969,53 735
FDP,14 799,19 240
DIE LINKE,33 044,34 826
GRÜNE,6 745,7 533
NPD,5 988,5 751
REP,-,462
MLPD,-,375
BüSo,-,1 032
