Wahlberechtigte,247 624,247 624
Wähler,159 655,159 655
Ungültige,2 884,2 857
Gültige,156 771,156 798
SPD,17 168,18 846
CDU,63 211,60 413
FDP,23 820,22 051
DIE LINKE,37 166,39 545
GRÜNE,5 896,5 919
NPD,7 930,7 876
REP,-,618
MLPD,-,373
BüSo,-,1 157
