Wahlberechtigte,212 140,212 140
Wähler,156 548,156 548
Ungültige,2 671,2 150
Gültige,153 877,154 398
SPD,45 074,33 243
CDU,55 027,43 089
FDP,14 336,27 031
DIE LINKE,11 998,15 397
GRÜNE,23 403,28 225
NPD,1 546,1 183
REP,-,651
Tierschutzpartei,2 077,1 503
MLPD,-,62
BüSo,416,190
PIRATEN,-,3 722
