Wahlberechtigte,199 708,199 708
Wähler,148 308,148 308
Ungültige,3 135,2 708
Gültige,145 173,145 600
SPD,44 903,35 748
CDU,64 472,50 275
FDP,12 966,25 219
DIE LINKE,9 171,10 891
GRÜNE,11 296,15 683
NPD,2 365,1 607
REP,-,1 458
Tierschutzpartei,-,1 618
MLPD,-,41
BüSo,-,165
PIRATEN,-,2 782
