Wahlberechtigte,225 534,225 534
Wähler,151 129,151 129
Ungültige,1 962,1 637
Gültige,149 167,149 492
SPD,33 468,26 879
CDU,45 899,41 750
FDP,8 889,13 419
DIE LINKE,43 013,41 765
GRÜNE,12 129,15 620
NPD,4 149,3 760
REP,-,451
MLPD,-,293
ÖDP,-,600
PIRATEN,-,4 955
K:Schumann,672,-
K:Fimmel,947,-
