Wahlberechtigte,178 493,178 493
Wähler,129 502,129 502
Ungültige,4 212,2 615
Gültige,125 290,126 887
SPD,29 768,26 369
CDU,59 719,49 993
FDP,15 621,24 093
DIE LINKE,8 979,10 510
GRÜNE,9 690,10 221
NPD,1 513,1 130
REP,-,482
FAMILIE,-,1 278
PBC,-,385
MLPD,-,25
ÖDP,-,284
PIRATEN,-,2 017
