Wahlberechtigte,168 357,168 357
Wähler,120 001,120 001
Ungültige,3 429,2 390
Gültige,116 572,117 611
SPD,28 042,22 419
CDU,53 705,48 270
FDP,16 213,22 500
DIE LINKE,8 043,9 642
GRÜNE,9 274,9 922
NPD,1 295,1 021
REP,-,354
FAMILIE,-,1 237
PBC,-,149
MLPD,-,22
ÖDP,-,266
PIRATEN,-,1 717
