Wahlberechtigte,162 109,162 109
Wähler,104 487,104 487
Ungültige,2 052,1 227
Gültige,102 435,103 260
SPD,17 920,14 151
FDP,10 305,14 359
DIE LINKE,4 868,5 742
GRÜNE,5 828,6 786
CSU,54 904,51 702
NPD,1 743,1 761
REP,1 719,1 388
FAMILIE,-,674
Tierschutzpartei,-,599
PBC,-,59
MLPD,-,20
BüSo,522,124
Bayernpartei,-,1 140
DIE VIOLETTEN,-,194
ÖDP,4 626,2 472
PIRATEN,-,1 392
Bündnis 21/RRP,-,486
