Wahlberechtigte,240 672,240 672
Wähler,177 024,177 024
Ungültige,2 484,1 754
Gültige,174 540,175 270
SPD,27 427,25 356
FDP,20 137,27 522
DIE LINKE,8 264,9 425
GRÜNE,15 031,16 430
CSU,92 508,80 335
NPD,2 834,2 168
REP,-,1 777
FAMILIE,-,1 187
Tierschutzpartei,-,1 208
PBC,-,200
MLPD,-,46
BüSo,444,122
Bayernpartei,2 552,1 609
DIE VIOLETTEN,-,405
ÖDP,2 804,1 790
PIRATEN,-,3 399
Bündnis 21/RRP,2 539,1 990
