Wahlberechtigte,184 454,184 454
Wähler,142 504,142 504
Ungültige,1 527,1 120
Gültige,140 977,141 384
SPD,25 364,26 656
CDU,48 518,39 482
FDP,14 514,27 557
DIE LINKE,6 601,9 439
GRÜNE,42 116,31 076
NPD,1 068,691
REP,-,758
Tierschutzpartei,-,667
PBC,-,250
MLPD,-,144
BüSo,446,150
Volksabstimmung,-,143
ADM,-,30
DIE VIOLETTEN,-,361
ÖDP,-,494
PIRATEN,2 350,3 426
