Wahlberechtigte,224 418,224 418
Wähler,159 936,159 936
Ungültige,3 218,2 871
Gültige,156 718,157 065
SPD,39 951,32 195
CDU,70 599,57 878
FDP,15 604,26 534
DIE LINKE,11 775,12 351
GRÜNE,14 226,17 732
NPD,2 996,1 867
REP,-,2 251
Tierschutzpartei,-,915
PBC,-,644
MLPD,-,55
BüSo,-,86
Volksabstimmung,-,397
ADM,-,66
DIE VIOLETTEN,-,314
ÖDP,-,827
PIRATEN,-,2 830
K:Nass,311,-
