Wahlberechtigte,225 703,225 703
Wähler,156 692,156 692
Ungültige,2 864,2 577
Gültige,153 828,154 115
SPD,49 591,33 953
CDU,58 282,49 707
FDP,16 932,26 425
DIE LINKE,9 268,10 802
GRÜNE,16 151,23 904
NPD,2 106,1 271
REP,-,1 333
Tierschutzpartei,-,1 124
PBC,1 498,987
MLPD,-,57
BüSo,-,55
Volksabstimmung,-,508
ADM,-,51
DIE VIOLETTEN,-,323
ÖDP,-,422
PIRATEN,-,3 116
